#:C0     
#Xilinx FPGA Editor Command Log File
#Editor Version:
#:V   SPARC M2.1 P.20131013
#Current Working Directory:
#:D   /home/ise/share/unoxt.sms/work
#Host Name:
#:H   localhost.localdomain
#Date/Time:
#:T   Mon Dec  6 14:14:02 2021
#------------------------------
	#Reading unoxt_top.ncd...
	#Loading device for application Rf_Device from file '6slx25.nph' in environment /opt/Xilinx/14.7/ISE_DS/ISE/.
	#   "unoxt_top" is an NCD, version 3.2, device xc6slx25, package ftg256, speed -2
	#Design creation date: 2021.12.06.14.12.52
	#Building chip graphics...
	#Loading speed info...
	#1
setattr main edit-mode no-logic-changes
	#2
select -k comp 'sms_i/system_inst/boot_rom_inst/ram_blocks[2].inst'
	#3
post attr
	#4
unpost comp "sms_i/system_inst/boot_rom_inst/ram_blocks[2].inst"
